<?xml version="1.0" encoding="UTF-8" standalone="no"?>
<!-- Created with Inkscape (http://www.inkscape.org/) -->

<svg
   xmlns:dc="http://purl.org/dc/elements/1.1/"
   xmlns:cc="http://creativecommons.org/ns#"
   xmlns:rdf="http://www.w3.org/1999/02/22-rdf-syntax-ns#"
   xmlns:svg="http://www.w3.org/2000/svg"
   xmlns="http://www.w3.org/2000/svg"
   xmlns:sodipodi="http://sodipodi.sourceforge.net/DTD/sodipodi-0.dtd"
   xmlns:inkscape="http://www.inkscape.org/namespaces/inkscape"
   width="1005.9432"
   height="370.02249"
   id="svg2"
   version="1.1"
   inkscape:version="0.92.1 r15371"
   sodipodi:docname="debian-edu-logo.svg">
  <defs
     id="defs4">
    <inkscape:perspective
       sodipodi:type="inkscape:persp3d"
       inkscape:vp_x="0 : 561.25983 : 1"
       inkscape:vp_y="0 : 1066.6667 : 0"
       inkscape:vp_z="793.70078 : 561.25983 : 1"
       inkscape:persp3d-origin="396.85039 : 374.17322 : 1"
       id="perspective10" />
    <clipPath
       id="clipPath2834"
       clipPathUnits="userSpaceOnUse">
      <path
         id="path2836"
         d="M 0,0 H 5950 V 7920 H 0 Z"
         inkscape:connector-curvature="0" />
    </clipPath>
    <inkscape:perspective
       id="perspective2824"
       inkscape:persp3d-origin="0.53333333 : 0.35555555 : 1"
       inkscape:vp_z="1.0666667 : 0.53333333 : 1"
       inkscape:vp_y="0 : 1066.6667 : 0"
       inkscape:vp_x="0 : 0.53333333 : 1"
       sodipodi:type="inkscape:persp3d" />
  </defs>
  <sodipodi:namedview
     id="base"
     pagecolor="#ffffff"
     bordercolor="#666666"
     borderopacity="1.0"
     inkscape:pageopacity="0.0"
     inkscape:pageshadow="2"
     inkscape:zoom="0.72055718"
     inkscape:cx="476.89322"
     inkscape:cy="-188.31754"
     inkscape:document-units="px"
     inkscape:current-layer="layer1"
     showgrid="false"
     inkscape:window-width="1280"
     inkscape:window-height="964"
     inkscape:window-x="0"
     inkscape:window-y="0"
     inkscape:window-maximized="1"
     inkscape:snap-bbox="true"
     inkscape:snap-global="true"
     inkscape:bbox-paths="true"
     inkscape:bbox-nodes="true"
     inkscape:snap-bbox-edge-midpoints="true"
     inkscape:snap-bbox-midpoints="true"
     inkscape:snap-page="true"
     fit-margin-top="0.1"
     fit-margin-left="0.1"
     fit-margin-bottom="0.1"
     fit-margin-right="0.1" />
  <metadata
     id="metadata7">
    <rdf:RDF>
      <cc:Work
         rdf:about="">
        <dc:format>image/svg+xml</dc:format>
        <dc:type
           rdf:resource="http://purl.org/dc/dcmitype/StillImage" />
        <dc:title></dc:title>
      </cc:Work>
    </rdf:RDF>
  </metadata>
  <g
     inkscape:label="Layer 1"
     inkscape:groupmode="layer"
     id="layer1"
     transform="translate(-27.565676,-55.75263)"
     style="display:inline">
    <g
       id="g4466"
       transform="matrix(2,0,0,2,-4.920262,-953.19545)">
      <path
         inkscape:connector-curvature="0"
         id="path4058"
         style="fill:#cb4b49;fill-opacity:1;fill-rule:nonzero;stroke:none;stroke-width:1.06666672"
         d="m 147.59534,583.66752 c 0.1859,4.98958 -1.45596,7.41414 -2.94085,11.70154 l -2.66829,1.32793 c -2.18086,4.24194 0.21687,2.69304 -1.3486,6.06551 -3.41173,3.02971 -10.33843,9.47729 -12.55649,10.06796 -1.62121,-0.035 1.09663,-1.91241 1.45186,-2.64553 -4.5621,3.13085 -3.66369,4.7004 -10.63794,6.60659 l -0.20446,-0.45642 c -17.20326,8.09568 -41.101929,-7.94485 -40.788006,-29.82792 -0.181764,1.38786 -0.522525,1.04092 -0.902509,1.59851 -0.888075,-11.25751 5.200184,-22.56455 15.468467,-27.18857 10.043128,-4.96893 21.816958,-2.93262 29.008028,3.77725 -3.95076,-5.17544 -11.81509,-10.66269 -21.13542,-10.15468 -9.13034,0.14872 -17.672058,5.9499 -20.524149,12.2509 -4.675656,2.9429 -5.220833,11.3504 -7.257141,12.89108 -2.744676,20.1565 5.15682,28.8614 18.524972,39.10694 2.098265,1.41674 0.590671,1.63358 0.871513,2.71165 -4.440215,-2.07761 -8.504544,-5.21675 -11.850219,-9.06015 1.776115,2.596 3.690585,5.1197 6.166742,7.10227 -4.190306,-1.41465 -9.78498,-10.1464 -11.414414,-10.50158 7.217919,12.92411 29.280596,22.66573 40.839646,17.83106 -5.34686,0.19827 -12.13934,0.10946 -18.147081,-2.11064 -2.527793,-1.29904 -5.956092,-3.9859 -5.342716,-4.48772 15.767917,5.88795 32.056307,4.45673 45.701207,-6.47861 3.46956,-2.70542 7.26128,-7.30464 8.35791,-7.3666 -1.64804,2.48239 0.28294,1.19367 -0.98303,3.38489 3.4551,-5.57816 -1.50554,-2.27174 3.57284,-9.63216 l 1.87724,2.58148 c -0.70008,-4.63435 5.75165,-10.25587 5.09287,-17.57911 1.48074,-2.23871 1.65009,2.41219 0.0805,7.56283 2.1788,-5.71447 0.57826,-6.63348 1.13381,-11.35045 0.60304,1.58613 1.40023,3.26924 1.80704,4.94412 -1.41878,-5.52442 1.45188,-9.29962 2.16643,-12.51104 -0.70632,-0.30978 -2.18912,2.44108 -2.53194,-4.08089 0.0515,-2.83349 0.78891,-1.4849 1.07184,-2.18294 -0.5535,-0.3201 -2.0136,-2.49271 -2.89958,-6.65824 0.63817,-0.98098 1.71828,2.53813 2.59395,2.68062 -0.56384,-3.31049 -1.53449,-5.8363 -1.57371,-8.37856 -2.56087,-5.3489 -0.90869,0.71456 -2.98012,-2.29654 -2.72607,-8.49627 2.25727,-1.97225 2.596,-5.83007 4.1263,5.97879 6.48061,15.25158 7.56278,19.09085 -0.82607,-4.68185 -2.15606,-9.21916 -3.78758,-13.60774 1.25978,0.53076 -2.01775,-9.63011 1.63357,-2.90163 -3.89912,-14.34289 -16.68279,-27.74616 -28.4442,-34.03269 1.43531,1.31556 3.25268,2.96774 2.60213,3.22792 -5.85072,-3.47988 -4.82224,-3.75453 -5.66282,-5.22497 -4.76032,-1.93926 -5.07629,0.15901 -8.22989,0.004 -8.97952,-4.76652 -10.71228,-4.25846 -18.97933,-7.24272 l 0.37378,1.75959 c -5.949855,-1.98261 -6.932878,0.7476 -13.361907,0.004 -0.390357,-0.30359 2.061054,-1.10695 4.078797,-1.39819 -5.751631,0.76003 -5.483163,-1.13584 -11.112958,0.20861 1.385758,-0.9727 2.856232,-1.61915 4.334888,-2.44522 -4.690073,0.28498 -11.201716,2.7302 -9.192254,0.50391 -7.651639,3.41588 -21.242803,8.20924 -28.869691,15.36109 l -0.239534,-1.60264 c -3.494357,4.1945 -15.239256,12.52762 -16.174787,17.96533 l -0.93553,0.21688 c -1.815333,3.0792 -2.994587,6.56737 -4.436125,9.73335 -2.377021,4.05403 -3.486076,1.56132 -3.147357,2.1974 -4.677705,9.48348 -7.00523,17.45109 -9.010553,23.98957 1.429116,2.13748 0.03507,12.87042 0.574112,21.45963 -2.346086,42.42782 29.77633,83.62066 64.889142,93.12685 5.14649,1.84422 12.798131,1.77606 19.309777,1.95987 -7.680574,-2.19737 -8.67184,-1.16065 -16.156186,-3.77106 -5.396447,-2.54437 -6.57775,-5.44601 -10.402497,-8.76479 l 1.513784,2.67443 c -7.496715,-2.65377 -4.359686,-3.28367 -10.460321,-5.21465 l 1.617064,-2.11064 c -2.430754,-0.1859 -6.437261,-4.09326 -7.531847,-6.26383 l -2.660009,0.10528 c -3.192808,-3.93836 -4.896631,-6.78217 -4.770653,-8.98366 l -0.859096,1.53239 c -0.972749,-1.6687 -11.753181,-14.78284 -6.160553,-11.73043 -1.038808,-0.94591 -2.420425,-1.54273 -3.917743,-4.26674 l 1.137943,-1.29905 c -2.686849,-3.46337 -4.952361,-7.90149 -4.778886,-9.3802 1.435303,1.93717 2.430755,2.30064 3.417924,2.63316 -6.796631,-16.86046 -7.178705,-0.92728 -12.323152,-17.16195 l 1.086306,-0.0867 c -0.832303,-1.26182 -1.342402,-2.62284 -2.011509,-3.96315 l 0.474974,-4.71902 c -4.890443,-5.65045 -1.367148,-24.04942 -0.658777,-34.138 0.485302,-4.10155 4.082936,-8.46947 6.81519,-15.3198 l -1.664558,-0.28502 c 3.184577,-5.55128 18.178064,-22.30227 25.12542,-21.44313 3.364239,-4.22542 -0.669106,-0.0165 -1.327934,-1.07807 7.391395,-7.64748 9.71478,-5.40258 14.702267,-6.78006 5.375795,-3.19076 -4.615739,1.24736 -2.067243,-1.21642 9.299631,-2.37294 6.588034,-5.3985 18.717057,-6.6025 1.280436,0.72693 -2.967748,1.12347 -4.033394,2.06728 7.744584,-3.79176 24.512089,-2.92643 35.406079,2.10236 12.63503,5.9086 26.83542,23.36587 27.39716,39.79057 l 0.63608,0.17138 c -0.32215,6.53026 0.99959,14.08275 -1.2928,21.01773 l 1.55923,-3.2837" />
      <path
         inkscape:connector-curvature="0"
         id="path4060"
         style="fill:#808080;fill-opacity:1;fill-rule:nonzero;stroke:none;stroke-width:1.06666672"
         d="m 194.79566,568.58415 c -0.0929,0.0971 -0.0929,15.50148 -0.28503,19.52246 -0.18999,3.25273 -0.47912,10.2373 -7.3687,10.2373 -7.08161,0 -8.80399,-8.13489 -9.37811,-11.6726 -0.66915,-3.92394 -0.66915,-7.1787 -0.66915,-8.61196 0,-4.59304 0.28708,-17.42011 11.10054,-17.42011 3.25477,0 5.07215,0.96033 6.50751,1.72239 l 0.0929,6.22252 z m -27.75035,11.29467 c 0,26.9841 14.35532,26.9841 16.45978,26.9841 5.93338,0 9.76227,-3.25477 11.38761,-8.89695 l 0.19209,8.51488 c 1.81942,-0.0971 3.63685,-0.28708 6.6025,-0.28708 1.05323,0 1.91238,0 2.68061,0.0971 0.7662,0 1.53035,0.0929 2.39155,0.18998 -1.53031,-3.06064 -2.67858,-9.95022 -2.67858,-24.8838 0,-14.5453 0,-39.13792 1.24327,-46.60364 -3.44272,1.62943 -6.41251,2.68269 -12.92001,3.25476 2.58357,2.77566 2.58357,4.21096 2.58357,16.83975 -1.81533,-0.57206 -4.11392,-1.24116 -8.0378,-1.24116 -17.12893,0 -19.90459,14.92737 -19.90459,26.03205" />
      <path
         inkscape:connector-curvature="0"
         id="path4062"
         style="fill:#808080;fill-opacity:1;fill-rule:nonzero;stroke:none;stroke-width:1.06666672"
         d="m 218.94425,574.99456 c 0.0971,-7.94281 1.72442,-15.02652 8.5169,-15.02652 7.46579,0 8.03577,8.22989 7.84577,15.02652 z m 25.83582,0.96033 c 0,-11.19759 -2.19944,-22.20523 -16.36267,-22.20523 -19.52047,0 -19.52047,21.62903 -19.52047,26.22206 0,19.42547 8.70695,27.0812 23.34935,27.0812 6.50336,0 9.66524,-0.95414 11.38762,-1.4353 -0.095,-3.44482 0.38207,-5.64632 0.96033,-8.61197 -2.0136,1.24741 -4.59718,2.87271 -10.33849,2.87271 -14.92947,0 -15.12151,-13.59327 -15.12151,-18.2813 h 25.46 l 0.18584,-5.64217" />
      <path
         inkscape:connector-curvature="0"
         id="path4064"
         style="fill:#808080;fill-opacity:1;fill-rule:nonzero;stroke:none;stroke-width:1.06666672"
         d="m 275.91323,580.06881 c 0,8.89899 -1.62534,20.86282 -12.72588,20.86282 -1.5324,0 -3.44477,-0.29122 -4.68803,-0.57825 -0.19203,-3.44481 -0.19203,-9.37816 -0.19203,-16.26775 0,-8.23192 0.85909,-12.53169 1.53234,-14.64239 2.00741,-6.79249 6.50545,-6.88749 7.36459,-6.88749 7.27371,0 8.70901,10.05142 8.70901,17.51306 z m -27.46328,10.43138 c 0,7.08167 0,11.10055 -1.14822,14.16124 3.92389,1.53234 8.80196,2.39149 14.64234,2.39149 3.73186,0 14.54537,0 20.38167,-11.95969 2.77566,-5.54922 3.73184,-13.01496 3.73184,-18.66331 0,-3.44482 -0.38207,-11.00351 -3.15773,-15.79068 -2.67857,-4.4939 -6.98662,-6.79248 -11.57761,-6.79248 -9.18812,0 -11.86674,7.65573 -13.3,11.57965 0,-4.88012 0.093,-21.914 0.8571,-30.62305 -6.21838,2.87275 -10.04936,3.34772 -14.16123,3.73185 3.73184,1.5283 3.73184,7.84785 3.73184,28.4236 v 23.54138" />
      <path
         inkscape:connector-curvature="0"
         id="path4066"
         style="fill:#808080;fill-opacity:1;fill-rule:nonzero;stroke:none;stroke-width:1.06666672"
         d="m 304.45248,606.48085 c -1.91243,-0.28708 -3.25686,-0.47912 -6.03253,-0.47912 -3.0565,0 -5.1651,0.19204 -7.36456,0.47912 0.95619,-1.81942 1.33826,-2.68271 1.62535,-8.89899 0.38411,-8.51901 0.48116,-31.2963 -0.18999,-36.07937 -0.47917,-3.63891 -1.33826,-4.21097 -2.67862,-5.16715 7.84577,-0.7662 10.04936,-1.34031 13.68207,-3.06274 -0.76415,4.20687 -0.8612,6.31751 -0.8612,12.72589 -0.18998,33.02076 -0.28707,36.55848 1.81948,40.48236" />
      <path
         inkscape:connector-curvature="0"
         id="path4068"
         style="fill:#808080;fill-opacity:1;fill-rule:nonzero;stroke:none;stroke-width:1.06666672"
         d="m 335.09614,579.39556 c -0.18795,6.03043 -0.28499,10.2414 -1.91447,13.58912 -2.00941,4.30806 -5.35714,5.54923 -7.84571,5.54923 -5.74545,0 -6.98667,-4.78303 -6.98667,-9.47106 0,-8.99404 8.03988,-9.66729 11.6726,-9.66729 z m -26.31909,11.77378 c 0,6.03045 1.81942,12.05674 7.18074,14.6424 2.3915,1.05118 4.78303,1.05118 5.54923,1.05118 8.80609,0 11.76964,-6.50954 13.58912,-10.52642 -0.0971,4.21101 0,6.79253 0.28708,10.14435 1.72238,-0.0971 3.44476,-0.28708 6.31752,-0.28708 1.62529,0 3.15768,0.19004 4.78301,0.28708 -1.05326,-1.6253 -1.62533,-2.58562 -1.91651,-6.31751 -0.19003,-3.63271 -0.19003,-7.27161 -0.19003,-12.34172 l 0.0971,-19.52251 c 0,-7.27779 -1.91446,-14.45235 -16.27183,-14.45235 -9.469,0 -15.02032,2.87065 -17.79599,4.30805 1.15032,2.10445 2.10651,3.91974 2.96566,8.0378 3.73388,-3.25478 8.6161,-4.97715 13.58912,-4.97715 7.94694,0 7.94694,5.26423 7.94694,12.72582 -1.81941,-0.0929 -3.35391,-0.28293 -5.93748,-0.28293 -12.15382,0 -20.19367,4.68393 -20.19367,17.51099" />
      <path
         inkscape:connector-curvature="0"
         id="path4070"
         style="fill:#808080;fill-opacity:1;fill-rule:nonzero;stroke:none;stroke-width:1.06666672"
         d="m 390.21676,597.00565 c 0.0971,3.25478 0.0971,6.69954 1.43536,9.4752 -2.10656,-0.18998 -3.35186,-0.47912 -7.27166,-0.47912 -2.30063,0 -3.5418,0.19204 -5.36127,0.47912 0.37997,-1.24326 0.5762,-1.72238 0.76619,-3.35182 0.28708,-2.1974 0.47911,-9.56814 0.47911,-12.15381 v -10.33435 c 0,-4.49803 0,-11.00759 -0.28912,-13.30208 -0.18999,-1.6253 -0.66501,-6.0263 -6.22043,-6.0263 -5.45423,0 -7.26955,4.01689 -7.94285,7.27166 -0.76205,3.34977 -0.76205,6.98662 -0.76205,21.14986 0.0929,12.2488 0.0929,13.39502 1.04913,16.74684 -1.62529,-0.18998 -3.63475,-0.38207 -6.50541,-0.38207 -2.30068,0 -3.82893,0.095 -5.74131,0.38207 0.6712,-1.53239 1.05324,-2.29859 1.24327,-7.65573 0.19414,-5.26423 0.57615,-31.10426 -0.29123,-37.22555 -0.47496,-3.73599 -1.4353,-4.59513 -2.48444,-5.55131 7.75282,-0.38208 10.23726,-1.62944 12.63294,-2.87066 v 10.14436 c 1.14618,-2.9698 3.53772,-9.5723 13.11001,-9.5723 11.96377,0 12.05672,8.70906 12.15376,14.44827 v 28.80772" />
      <path
         inkscape:connector-curvature="0"
         id="path4072"
         style="fill:#cb4b49;fill-opacity:1;fill-rule:nonzero;stroke:none;stroke-width:1.06666672"
         d="m 305.25994,539.72893 -7.92421,7.92215 -7.92219,-7.92215 7.92219,-7.9222 7.92421,7.9222" />
      <path
         inkscape:connector-curvature="0"
         d="m 406.10019,574.99456 c 0.0971,-7.94281 1.72447,-15.02652 8.51696,-15.02652 7.46574,0 8.03576,8.22989 7.84576,15.02652 z m 25.83588,0.96033 c 0,-11.19759 -2.19945,-22.20523 -16.36274,-22.20523 -19.52041,0 -19.52041,21.62903 -19.52041,26.22206 0,19.42547 8.70696,27.0812 23.34936,27.0812 6.50336,0 9.66519,-0.95414 11.38757,-1.4353 -0.095,-3.44482 0.38208,-5.64632 0.96033,-8.61197 -2.01356,1.24741 -4.59719,2.87271 -10.33844,2.87271 -14.92948,0 -15.12156,-13.59327 -15.12156,-18.2813 h 25.46 l 0.18589,-5.64217"
         style="fill:#000000;fill-opacity:1;fill-rule:nonzero;stroke:none;stroke-width:1.06666672"
         id="path4074" />
      <path
         inkscape:connector-curvature="0"
         d="m 464.42142,568.58415 c -0.0929,0.0971 -0.0929,15.50148 -0.28504,19.52246 -0.18998,3.25273 -0.47911,10.2373 -7.36869,10.2373 -7.08162,0 -8.804,-8.13489 -9.37811,-11.6726 -0.66915,-3.92394 -0.66915,-7.1787 -0.66915,-8.61196 0,-4.59304 0.28707,-17.42011 11.10054,-17.42011 3.25477,0 5.07215,0.96033 6.5075,1.72239 l 0.0929,6.22252 z m -27.75036,11.29467 c 0,26.9841 14.35536,26.9841 16.45978,26.9841 5.93339,0 9.76228,-3.25477 11.38761,-8.89695 l 0.19209,8.51488 c 1.81942,-0.0971 3.63685,-0.28708 6.60251,-0.28708 1.05322,0 1.91236,0 2.68061,0.0971 0.76619,0 1.53035,0.0929 2.39153,0.18998 -1.53029,-3.06064 -2.67856,-9.95022 -2.67856,-24.8838 0,-14.5453 0,-39.13792 1.24326,-46.60364 -3.44271,1.62943 -6.41251,2.68269 -12.92001,3.25476 2.58357,2.77566 2.58357,4.21096 2.58357,16.83975 -1.81533,-0.57206 -4.11392,-1.24116 -8.0378,-1.24116 -17.12893,0 -19.90459,14.92737 -19.90459,26.03205"
         style="fill:#000000;fill-opacity:1;fill-rule:nonzero;stroke:none;stroke-width:1.06666672"
         id="path4076" />
      <path
         sodipodi:nodetypes="ccsccsscscccsccccccscc"
         inkscape:connector-curvature="0"
         d="m 481.50947,563.11209 c -0.0971,-3.25477 -0.0971,-6.69955 -1.4353,-9.47519 2.1065,0.18998 3.35181,0.47911 7.2716,0.47911 2.30069,0 3.54186,-0.19204 5.36133,-0.47911 -0.38003,1.24326 -0.5762,1.72237 -0.76619,3.35186 -0.28708,2.19735 -0.47912,9.56815 -0.47912,12.15377 v 10.33433 c 0,4.49805 0,11.00764 0.28912,13.30209 0.19,1.62535 0.66497,6.0263 6.22043,6.0263 5.45423,0 7.26956,-4.01683 7.9428,-7.27161 0.76206,-3.34981 0.76206,-6.98666 0.76206,-21.1499 -0.0929,-12.24881 -0.0929,-13.39498 -1.04913,-16.74684 1.62534,0.18998 3.6348,0.38207 6.50545,0.38207 2.30064,0 3.82889,-0.095 5.74131,-0.38207 -0.6712,1.53239 -1.05328,2.29858 -1.24326,7.65576 -0.19413,5.26425 -0.5762,31.10423 0.29117,37.22551 0.47503,3.73598 1.22056,6.50346 1.99889,8.06903 -5.2467,-0.33268 -7.04328,-0.48194 -12.14734,0.35294 -0.0677,-1.94803 -0.12223,-6.30095 -0.0644,-8.28104 -1.49201,4.06959 -7.39948,7.90047 -13.0457,7.70897 -11.95691,-0.40555 -12.05673,-8.709 -12.15382,-14.44825 v -28.80773"
         style="fill:#000000;fill-opacity:1;fill-rule:nonzero;stroke:none;stroke-width:1.06666672"
         id="path4078" />
      <g
         style="fill:#808080;fill-opacity:1;stroke:none"
         id="g4414">
        <path
           d="m 316.60551,623.22934 c 0,-3.13241 1.23222,-5.74732 3.69666,-7.84472 2.46442,-2.09736 5.74099,-3.14604 9.82972,-3.14607 3.33257,3e-5 5.92302,0.62652 7.77136,1.87947 1.87631,1.22577 2.81448,2.9418 2.8145,5.1481 -2e-5,0.68099 -0.11204,1.52539 -0.33605,2.5332 h -5.88104 c 0.056,-0.49029 0.084,-0.80352 0.084,-0.93974 -2e-5,-2.26079 -1.84834,-3.39119 -5.54497,-3.39122 -1.90435,3e-5 -3.4166,0.38138 -4.5368,1.14403 -1.0922,0.7627 -1.63829,1.79779 -1.63828,3.10521 -1e-5,0.7627 0.35005,1.36195 1.05019,1.79775 0.70009,0.4086 2.04434,0.80355 4.0327,1.18488 l 4.57881,0.89887 c 2.15635,0.4086 3.79463,1.13043 4.91487,2.16548 1.12017,1.03508 1.68025,2.34253 1.68028,3.92236 -3e-5,0.9806 -0.12604,1.96119 -0.37805,2.94177 -0.25208,0.9806 -0.71417,2.01566 -1.38625,3.10521 -0.67214,1.08956 -1.5263,2.0429 -2.56245,2.86005 -1.03621,0.81717 -2.42245,1.49813 -4.15874,2.0429 -1.73632,0.54477 -3.69666,0.81717 -5.88102,0.81717 -2.1564,0 -4.01872,-0.25878 -5.58698,-0.77631 -1.54029,-0.4903 -2.70248,-1.14401 -3.48662,-1.96118 -0.78414,-0.84439 -1.35824,-1.70242 -1.72231,-2.57405 -0.33605,-0.87164 -0.50408,-1.78412 -0.50408,-2.73749 0,-0.46305 0.056,-1.06229 0.16803,-1.79775 h 6.13308 c -0.056,0.49031 -0.0841,0.80355 -0.0841,0.93975 -10e-6,1.17125 0.51808,2.08374 1.55427,2.73747 1.06418,0.6265 2.54843,0.93974 4.45278,0.93973 2.18437,10e-6 3.92068,-0.40857 5.20892,-1.22574 1.3162,-0.84439 1.97432,-1.94755 1.97434,-3.30949 -2e-5,-0.95334 -0.36409,-1.67517 -1.09219,-2.16547 -0.72814,-0.49028 -2.04438,-0.92611 -3.9487,-1.30746 l -4.11671,-0.81715 c -2.49246,-0.49029 -4.29876,-1.21211 -5.41896,-2.16547 -1.1202,-0.98058 -1.6803,-2.31528 -1.6803,-4.00409"
           style="font-style:oblique;font-variant:normal;font-weight:bold;font-stretch:normal;font-size:54.62936401px;line-height:125%;font-family:FreeSans;-inkscape-font-specification:'FreeSans Bold Oblique';letter-spacing:0px;word-spacing:0px;fill:#808080;fill-opacity:1;stroke:none;stroke-width:1.06666672"
           id="path4080"
           inkscape:connector-curvature="0" />
        <path
           d="m 353.19263,612.72885 -3.57062,16.30232 9.36763,-8.58017 h 6.67918 l -9.74572,8.41674 5.41896,13.64655 h -6.88921 l -3.31859,-9.76504 -2.85649,2.53319 -1.59628,7.23185 h -5.88104 l 6.51114,-29.78544 h 5.88104"
           style="font-style:oblique;font-variant:normal;font-weight:bold;font-stretch:normal;font-size:54.62936401px;line-height:125%;font-family:FreeSans;-inkscape-font-specification:'FreeSans Bold Oblique';letter-spacing:0px;word-spacing:0px;fill:#808080;fill-opacity:1;stroke:none;stroke-width:1.06666672"
           id="path4082"
           inkscape:connector-curvature="0" />
        <path
           d="m 362.81246,635.28244 c -10e-6,-4.22197 1.27422,-7.80385 3.82267,-10.74564 2.57644,-2.96899 5.93703,-4.45349 10.08178,-4.45351 2.88448,2e-5 5.15287,0.73545 6.80518,2.20632 1.65228,1.44367 2.47841,3.43209 2.47844,5.96526 -3e-5,4.30371 -1.30226,7.91283 -3.90668,10.82736 -2.60448,2.91454 -5.99308,4.37181 -10.1658,4.37181 -2.77249,0 -4.98487,-0.73545 -6.63715,-2.20634 -1.6523,-1.49812 -2.47845,-3.48655 -2.47844,-5.96526 m 10.16578,3.5955 c 1.31621,0 2.46443,-0.36771 3.44461,-1.10317 0.98015,-0.76266 1.70829,-1.68879 2.18438,-2.77833 0.47607,-1.11678 0.82612,-2.15184 1.05019,-3.10521 0.22401,-0.95334 0.33604,-1.7705 0.33606,-2.45148 -2e-5,-1.44363 -0.37809,-2.60128 -1.13421,-3.47292 -0.75614,-0.87162 -1.77832,-1.30744 -3.06653,-1.30746 -1.90436,2e-5 -3.54264,0.93976 -4.91486,2.8192 -1.37226,1.85225 -2.05837,4.07218 -2.05836,6.65984 -1e-5,1.44366 0.37805,2.6013 1.1342,3.47293 0.75611,0.8444 1.7643,1.2666 3.02452,1.2666"
           style="font-style:oblique;font-variant:normal;font-weight:bold;font-stretch:normal;font-size:54.62936401px;line-height:125%;font-family:FreeSans;-inkscape-font-specification:'FreeSans Bold Oblique';letter-spacing:0px;word-spacing:0px;fill:#808080;fill-opacity:1;stroke:none;stroke-width:1.06666672"
           id="path4084"
           inkscape:connector-curvature="0" />
        <path
           d="m 398.7381,612.72885 -6.51113,29.78544 h -5.88105 l 6.51115,-29.78544 h 5.88103"
           style="font-style:oblique;font-variant:normal;font-weight:bold;font-stretch:normal;font-size:54.62936401px;line-height:125%;font-family:FreeSans;-inkscape-font-specification:'FreeSans Bold Oblique';letter-spacing:0px;word-spacing:0px;fill:#808080;fill-opacity:1;stroke:none;stroke-width:1.06666672"
           id="path4086"
           inkscape:connector-curvature="0" />
        <path
           d="m 411.1027,620.08329 c 2.66045,2e-5 4.80283,0.74907 6.42712,2.24718 1.65227,1.49814 2.47843,3.44571 2.47845,5.84269 -2e-5,1.55261 -0.25208,3.25502 -0.75614,5.10725 h -15.24867 c -0.0841,0.76268 -0.12604,1.37556 -0.12603,1.8386 -1e-5,1.11679 0.36405,2.02928 1.09219,2.73749 0.72812,0.68096 1.69429,1.02144 2.89851,1.02144 1.00817,0 1.93234,-0.23152 2.77249,-0.69458 0.86814,-0.46305 1.51225,-1.08955 1.93234,-1.87947 h 5.79702 c -1.14823,2.26081 -2.74451,4.0177 -4.78885,5.27068 -2.01636,1.25297 -4.29877,1.87947 -6.8472,1.87947 -2.63247,0 -4.77484,-0.77631 -6.42712,-2.32892 -1.62429,-1.57983 -2.43643,-3.63634 -2.43643,-6.16955 0,-0.65371 0.07,-1.40278 0.21004,-2.24718 0.14002,-0.84439 0.37805,-1.85222 0.71412,-3.02349 0.33605,-1.19848 0.82614,-2.32889 1.47026,-3.3912 0.67212,-1.08954 1.47025,-2.11099 2.39441,-3.06436 0.92416,-0.95333 2.11437,-1.71601 3.57064,-2.28805 1.45624,-0.57198 3.08052,-0.85798 4.87285,-0.858 m 2.89852,8.78445 c -3e-5,-2.80556 -1.20424,-4.20835 -3.61264,-4.20837 -2.82852,2e-5 -4.70485,1.6071 -5.62899,4.82125 h 9.24163 v -0.61288"
           style="font-style:oblique;font-variant:normal;font-weight:bold;font-stretch:normal;font-size:54.62936401px;line-height:125%;font-family:FreeSans;-inkscape-font-specification:'FreeSans Bold Oblique';letter-spacing:0px;word-spacing:0px;fill:#808080;fill-opacity:1;stroke:none;stroke-width:1.06666672"
           id="path4088"
           inkscape:connector-curvature="0" />
        <path
           d="m 433.77158,612.72885 -6.51113,29.78544 h -5.88104 l 6.51114,-29.78544 h 5.88103"
           style="font-style:oblique;font-variant:normal;font-weight:bold;font-stretch:normal;font-size:54.62936401px;line-height:125%;font-family:FreeSans;-inkscape-font-specification:'FreeSans Bold Oblique';letter-spacing:0px;word-spacing:0px;fill:#808080;fill-opacity:1;stroke:none;stroke-width:1.06666672"
           id="path4090"
           inkscape:connector-curvature="0" />
        <path
           d="m 443.74178,620.451 -4.83086,22.06329 h -5.88102 l 4.83085,-22.06329 h 5.88103 m 1.68029,-7.72215 -1.1342,5.10725 h -5.88102 l 1.13418,-5.10725 h 5.88104"
           style="font-style:oblique;font-variant:normal;font-weight:bold;font-stretch:normal;font-size:54.62936401px;line-height:125%;font-family:FreeSans;-inkscape-font-specification:'FreeSans Bold Oblique';letter-spacing:0px;word-spacing:0px;fill:#808080;fill-opacity:1;stroke:none;stroke-width:1.06666672"
           id="path4092"
           inkscape:connector-curvature="0" />
        <path
           d="m 449.3432,620.451 h 5.88103 l -0.75612,3.35034 c 1.12018,-1.30742 2.28239,-2.24715 3.4866,-2.81919 1.2042,-0.59922 2.59044,-0.89884 4.15874,-0.89886 1.8763,2e-5 3.37457,0.49031 4.49478,1.47088 1.12018,0.9806 1.68027,2.28806 1.6803,3.92236 -3e-5,0.73546 -0.084,1.48453 -0.25205,2.24719 l -3.23456,14.79057 h -5.88103 l 2.81448,-12.78853 c 0.16802,-0.89886 0.25203,-1.56621 0.25205,-2.00204 -2e-5,-2.04289 -1.0362,-3.06433 -3.10854,-3.06435 -1.40027,2e-5 -2.61847,0.49032 -3.65465,1.47089 -1.00819,0.95337 -1.7083,2.27443 -2.10037,3.96322 l -2.73046,12.42081 h -5.88104 L 449.3432,620.451"
           style="font-style:oblique;font-variant:normal;font-weight:bold;font-stretch:normal;font-size:54.62936401px;line-height:125%;font-family:FreeSans;-inkscape-font-specification:'FreeSans Bold Oblique';letter-spacing:0px;word-spacing:0px;fill:#808080;fill-opacity:1;stroke:none;stroke-width:1.06666672"
           id="path4094"
           inkscape:connector-curvature="0" />
        <path
           d="m 489.4517,642.51429 h -5.88102 l 0.63011,-2.77833 c -1.12021,1.30746 -2.28242,2.24719 -3.48661,2.8192 -1.20423,0.59924 -2.59047,0.89888 -4.15873,0.89888 -1.84834,0 -3.33259,-0.4903 -4.45278,-1.47089 -1.12021,-0.98059 -1.6803,-2.28805 -1.6803,-3.92237 0,-0.73544 0.084,-1.4845 0.25204,-2.24718 l 3.3606,-15.3626 h 5.88102 l -2.94052,13.36055 c -0.16803,0.95336 -0.25204,1.62071 -0.25203,2.00205 -10e-6,2.0429 1.06418,3.06434 3.19255,3.06434 1.37224,0 2.56244,-0.49029 3.57063,-1.47088 1.00817,-0.98059 1.69428,-2.30166 2.05836,-3.96323 l 2.85651,-12.99283 h 5.88103 l -4.83086,22.06329"
           style="font-style:oblique;font-variant:normal;font-weight:bold;font-stretch:normal;font-size:54.62936401px;line-height:125%;font-family:FreeSans;-inkscape-font-specification:'FreeSans Bold Oblique';letter-spacing:0px;word-spacing:0px;fill:#808080;fill-opacity:1;stroke:none;stroke-width:1.06666672"
           id="path4096"
           inkscape:connector-curvature="0" />
        <path
           d="m 509.20885,631.31922 5.1669,11.19507 h -7.05723 l -2.47845,-6.86412 -5.16691,6.86412 h -7.05722 l 9.78772,-11.19507 -4.66283,-10.86822 h 7.05724 l 2.14238,6.65985 5.1669,-6.65985 h 7.05725 l -9.95575,10.86822"
           style="font-style:oblique;font-variant:normal;font-weight:bold;font-stretch:normal;font-size:54.62936401px;line-height:125%;font-family:FreeSans;-inkscape-font-specification:'FreeSans Bold Oblique';letter-spacing:0px;word-spacing:0px;fill:#808080;fill-opacity:1;stroke:none;stroke-width:1.06666672"
           id="path4098"
           inkscape:connector-curvature="0" />
      </g>
    </g>
  </g>
</svg>
